d:\code\gallery-starter\gallery\gallery\debug\vc140.pdb
d:\code\gallery-starter\gallery\gallery\debug\vc140.idb
d:\code\gallery-starter\gallery\gallery\debug\album.obj
d:\code\gallery-starter\gallery\gallery\debug\albummanager.obj
d:\code\gallery-starter\gallery\gallery\debug\memoryaccess.obj
d:\code\gallery-starter\gallery\gallery\debug\picture.obj
d:\code\gallery-starter\gallery\gallery\debug\user.obj
d:\code\gallery-starter\gallery\gallery\debug\gallery.obj
d:\code\gallery-starter\gallery\gallery\debug\gallery.ilk
d:\code\gallery-starter\gallery\gallery\debug\gallery.exe
d:\code\gallery-starter\gallery\gallery\debug\gallery.pdb
d:\code\gallery-starter\gallery\gallery\debug\gallery.tlog\cl.command.1.tlog
d:\code\gallery-starter\gallery\gallery\debug\gallery.tlog\cl.read.1.tlog
d:\code\gallery-starter\gallery\gallery\debug\gallery.tlog\cl.write.1.tlog
d:\code\gallery-starter\gallery\gallery\debug\gallery.tlog\link.command.1.tlog
d:\code\gallery-starter\gallery\gallery\debug\gallery.tlog\link.read.1.tlog
d:\code\gallery-starter\gallery\gallery\debug\gallery.tlog\link.write.1.tlog
