^D:\CODE\GALLERY-STARTER\GALLERY\GALLERY\ALBUM.CPP
/c /ZI /nologo /W4 /WX- /sdl /Od /Oy- /D MEMORY_ACCESS /D _CRT_SECURE_NO_WARNINGS /D WIN32 /D _DEBUG /D _CONSOLE /D _MBCS /Gm /EHsc /RTC1 /MDd /GS /fp:precise /Zc:wchar_t /Zc:forScope /Zc:inline /Fo"DEBUG\\" /Fd"DEBUG\VC140.PDB" /Gd /TP /analyze- D:\CODE\GALLERY-STARTER\GALLERY\GALLERY\ALBUM.CPP
^D:\CODE\GALLERY-STARTER\GALLERY\GALLERY\ALBUMMANAGER.CPP
/c /ZI /nologo /W4 /WX- /sdl /Od /Oy- /D MEMORY_ACCESS /D _CRT_SECURE_NO_WARNINGS /D WIN32 /D _DEBUG /D _CONSOLE /D _MBCS /Gm /EHsc /RTC1 /MDd /GS /fp:precise /Zc:wchar_t /Zc:forScope /Zc:inline /Fo"DEBUG\\" /Fd"DEBUG\VC140.PDB" /Gd /TP /analyze- D:\CODE\GALLERY-STARTER\GALLERY\GALLERY\ALBUMMANAGER.CPP
^D:\CODE\GALLERY-STARTER\GALLERY\GALLERY\MEMORYACCESS.CPP
/c /ZI /nologo /W4 /WX- /sdl /Od /Oy- /D MEMORY_ACCESS /D _CRT_SECURE_NO_WARNINGS /D WIN32 /D _DEBUG /D _CONSOLE /D _MBCS /Gm /EHsc /RTC1 /MDd /GS /fp:precise /Zc:wchar_t /Zc:forScope /Zc:inline /Fo"DEBUG\\" /Fd"DEBUG\VC140.PDB" /Gd /TP /analyze- D:\CODE\GALLERY-STARTER\GALLERY\GALLERY\MEMORYACCESS.CPP
^D:\CODE\GALLERY-STARTER\GALLERY\GALLERY\PICTURE.CPP
/c /ZI /nologo /W4 /WX- /sdl /Od /Oy- /D MEMORY_ACCESS /D _CRT_SECURE_NO_WARNINGS /D WIN32 /D _DEBUG /D _CONSOLE /D _MBCS /Gm /EHsc /RTC1 /MDd /GS /fp:precise /Zc:wchar_t /Zc:forScope /Zc:inline /Fo"DEBUG\\" /Fd"DEBUG\VC140.PDB" /Gd /TP /analyze- D:\CODE\GALLERY-STARTER\GALLERY\GALLERY\PICTURE.CPP
^D:\CODE\GALLERY-STARTER\GALLERY\GALLERY\USER.CPP
/c /ZI /nologo /W4 /WX- /sdl /Od /Oy- /D MEMORY_ACCESS /D _CRT_SECURE_NO_WARNINGS /D WIN32 /D _DEBUG /D _CONSOLE /D _MBCS /Gm /EHsc /RTC1 /MDd /GS /fp:precise /Zc:wchar_t /Zc:forScope /Zc:inline /Fo"DEBUG\\" /Fd"DEBUG\VC140.PDB" /Gd /TP /analyze- D:\CODE\GALLERY-STARTER\GALLERY\GALLERY\USER.CPP
^D:\CODE\GALLERY-STARTER\GALLERY\GALLERY\GALLERY.CPP
/c /ZI /nologo /W4 /WX- /sdl /Od /Oy- /D MEMORY_ACCESS /D _CRT_SECURE_NO_WARNINGS /D WIN32 /D _DEBUG /D _CONSOLE /D _MBCS /Gm /EHsc /RTC1 /MDd /GS /fp:precise /Zc:wchar_t /Zc:forScope /Zc:inline /Fo"DEBUG\\" /Fd"DEBUG\VC140.PDB" /Gd /TP /analyze- D:\CODE\GALLERY-STARTER\GALLERY\GALLERY\GALLERY.CPP
^C:\USERS\TOMERIQ\DOWNLOADS\GALLERY\ALBUM.CPP
/c /ZI /JMC /nologo /W4 /WX- /diagnostics:classic /sdl /Od /Oy- /D MEMORY_ACCESS /D _CRT_SECURE_NO_WARNINGS /D WIN32 /D _DEBUG /D _CONSOLE /D _MBCS /Gm- /EHsc /RTC1 /MDd /GS /fp:precise /Zc:wchar_t /Zc:forScope /Zc:inline /Fo"DEBUG\\" /Fd"DEBUG\VC141.PDB" /Gd /TP /analyze- /FC C:\USERS\TOMERIQ\DOWNLOADS\GALLERY\ALBUM.CPP
^C:\USERS\TOMERIQ\DOWNLOADS\GALLERY\ALBUMMANAGER.CPP
/c /ZI /JMC /nologo /W4 /WX- /diagnostics:classic /sdl /Od /Oy- /D MEMORY_ACCESS /D _CRT_SECURE_NO_WARNINGS /D WIN32 /D _DEBUG /D _CONSOLE /D _MBCS /Gm- /EHsc /RTC1 /MDd /GS /fp:precise /Zc:wchar_t /Zc:forScope /Zc:inline /Fo"DEBUG\\" /Fd"DEBUG\VC141.PDB" /Gd /TP /analyze- /FC C:\USERS\TOMERIQ\DOWNLOADS\GALLERY\ALBUMMANAGER.CPP
^C:\USERS\TOMERIQ\DOWNLOADS\GALLERY\MEMORYACCESS.CPP
/c /ZI /JMC /nologo /W4 /WX- /diagnostics:classic /sdl /Od /Oy- /D MEMORY_ACCESS /D _CRT_SECURE_NO_WARNINGS /D WIN32 /D _DEBUG /D _CONSOLE /D _MBCS /Gm- /EHsc /RTC1 /MDd /GS /fp:precise /Zc:wchar_t /Zc:forScope /Zc:inline /Fo"DEBUG\\" /Fd"DEBUG\VC141.PDB" /Gd /TP /analyze- /FC C:\USERS\TOMERIQ\DOWNLOADS\GALLERY\MEMORYACCESS.CPP
^C:\USERS\TOMERIQ\DOWNLOADS\GALLERY\PICTURE.CPP
/c /ZI /JMC /nologo /W4 /WX- /diagnostics:classic /sdl /Od /Oy- /D MEMORY_ACCESS /D _CRT_SECURE_NO_WARNINGS /D WIN32 /D _DEBUG /D _CONSOLE /D _MBCS /Gm- /EHsc /RTC1 /MDd /GS /fp:precise /Zc:wchar_t /Zc:forScope /Zc:inline /Fo"DEBUG\\" /Fd"DEBUG\VC141.PDB" /Gd /TP /analyze- /FC C:\USERS\TOMERIQ\DOWNLOADS\GALLERY\PICTURE.CPP
^C:\USERS\TOMERIQ\DOWNLOADS\GALLERY\USER.CPP
/c /ZI /JMC /nologo /W4 /WX- /diagnostics:classic /sdl /Od /Oy- /D MEMORY_ACCESS /D _CRT_SECURE_NO_WARNINGS /D WIN32 /D _DEBUG /D _CONSOLE /D _MBCS /Gm- /EHsc /RTC1 /MDd /GS /fp:precise /Zc:wchar_t /Zc:forScope /Zc:inline /Fo"DEBUG\\" /Fd"DEBUG\VC141.PDB" /Gd /TP /analyze- /FC C:\USERS\TOMERIQ\DOWNLOADS\GALLERY\USER.CPP
^C:\USERS\TOMERIQ\DOWNLOADS\GALLERY\GALLERY.CPP
/c /ZI /JMC /nologo /W4 /WX- /diagnostics:classic /sdl /Od /Oy- /D MEMORY_ACCESS /D _CRT_SECURE_NO_WARNINGS /D WIN32 /D _DEBUG /D _CONSOLE /D _MBCS /Gm- /EHsc /RTC1 /MDd /GS /fp:precise /Zc:wchar_t /Zc:forScope /Zc:inline /Fo"DEBUG\\" /Fd"DEBUG\VC141.PDB" /Gd /TP /analyze- /FC C:\USERS\TOMERIQ\DOWNLOADS\GALLERY\GALLERY.CPP
